3 15
27 22 17 32 18 37 16 49 45 12 14 31 37 40 21 
39 16 24 27 45 27 18 23 46 17 27 38 43 50 42 
10 14 26 37 11 32 42 38 13 45 48 23 11 40 14 
9 8 12 10 6 6 9 12 11 6 7 13 11 8 15 
14 6 7 6 11 9 5 10 14 13 14 12 13 14 12 
8 5 8 11 12 12 10 14 6 9 8 14 8 9 11 
71 71 71 