4 12
14 33 40 49 17 48 29 32 12 46 38 29 
16 12 13 44 26 22 36 44 17 15 50 41 
17 47 44 41 15 22 11 24 37 50 22 43 
35 39 47 31 11 23 44 28 23 32 27 14 
9 12 19 20 17 23 14 7 25 11 18 23 
12 9 14 20 11 6 5 11 12 6 7 16 
6 9 23 16 8 10 23 14 11 15 7 7 
15 23 7 9 9 6 9 7 6 20 21 22 
31 31 31 31 