4 10
12 33 42 36 21 24 47 39 46 18 
49 37 11 19 20 15 26 42 12 39 
18 24 13 26 23 45 12 32 22 39 
37 35 49 15 16 14 24 37 12 45 
17 11 22 10 11 21 5 25 17 20 
6 16 14 20 8 21 16 11 23 17 
23 25 14 15 15 18 11 21 24 6 
21 19 16 18 12 8 24 23 16 14 
32 30 34 34 